Movie analysis and score prediction
…
Average movie duration

mean(movie$duration)

## [1] 107.3348

Count of movies based on language

lang = movie %>%
        group_by(language) %>%
          summarise(n=n()) 
lang[order(-lang$n), ]

## # A tibble: 48 x 2
##    language      n
##    <chr>     <int>
##  1 English    4687
##  2 French       73
##  3 Spanish      40
##  4 Hindi        28
##  5 Mandarin     26
##  6 German       19
##  7 Japanese     18
##  8 Cantonese    11
##  9 Italian      11
## 10 Russian      11
## # ... with 38 more rows

Multiple Linear Regression - Variable Selection

movie_sub <- subset(movie, select = c(3, 4, 5, 8, 9, 13, 15, 22, 27, 28:53, 25))
movie_sub

## # A tibble: 5,022 x 36
##    num_critic_for_reviews duration director_facebook_~ actor_1_facebook_~  gross
##                     <dbl>    <dbl>               <dbl>              <dbl>  <dbl>
##  1                    723      178                   0               1000 7.61e8
##  2                    302      169                 563              40000 3.09e8
##  3                    602      148                   0              11000 2.00e8
##  4                    813      164               22000              27000 4.48e8
##  5                    462      132                 475                640 7.31e7
##  6                    392      156                   0              24000 3.37e8
##  7                    324      100                  15                799 2.01e8
##  8                    635      141                   0              26000 4.59e8
##  9                    375      153                 282              25000 3.02e8
## 10                    673      183                   0              15000 3.30e8
## # ... with 5,012 more rows, and 31 more variables:
## #   cast_total_facebook_likes <dbl>, facenumber_in_poster <dbl>, budget <dbl>,
## #   movie_facebook_likes <int>, Action <dbl>, Adventure <dbl>, Fantasy <dbl>,
## #   SciFi <dbl>, Thriller <dbl>, Documentary <dbl>, Romance <dbl>,
## #   Animation <dbl>, Comedy <dbl>, Family <dbl>, Musical <dbl>, Mystery <dbl>,
## #   Western <dbl>, Drama <dbl>, History <dbl>, Sport <dbl>, Crime <dbl>,
## #   Horror <dbl>, War <dbl>, Biography <dbl>, Music <dbl>, GameShow <dbl>, ...
…
Decision Tree

library(rpart)
library(rpart.plot)

## Warning: package 'rpart.plot' was built under R version 4.1.1

movie_sub_dectre <- subset(movie, select = c(3, 4, 5, 8, 9, 13, 15, 22, 27, 28:53))
movie_sub_dectre$imdb_cat <- as.numeric(cut2(movie_sub$imdb_score, g=3))

movie_sub_dectre$imdb_cat <- factor(x=movie_sub_dectre$imdb_cat, levels=sort(unique(movie_sub_dectre$imdb_cat)), labels = c("Low", "Medium", "High"))
movie_sub_dectre

## # A tibble: 5,022 x 36
##    num_critic_for_reviews duration director_facebook_~ actor_1_facebook_~  gross
##                     <dbl>    <dbl>               <dbl>              <dbl>  <dbl>
##  1                    723      178                   0               1000 7.61e8
##  2                    302      169                 563              40000 3.09e8
##  3                    602      148                   0              11000 2.00e8
##  4                    813      164               22000              27000 4.48e8
##  5                    462      132                 475                640 7.31e7
##  6                    392      156                   0              24000 3.37e8
##  7                    324      100                  15                799 2.01e8
##  8                    635      141                   0              26000 4.59e8
##  9                    375      153                 282              25000 3.02e8
## 10                    673      183                   0              15000 3.30e8
## # ... with 5,012 more rows, and 31 more variables:
## #   cast_total_facebook_likes <dbl>, facenumber_in_poster <dbl>, budget <dbl>,
## #   movie_facebook_likes <int>, Action <dbl>, Adventure <dbl>, Fantasy <dbl>,
## #   SciFi <dbl>, Thriller <dbl>, Documentary <dbl>, Romance <dbl>,
## #   Animation <dbl>, Comedy <dbl>, Family <dbl>, Musical <dbl>, Mystery <dbl>,
## #   Western <dbl>, Drama <dbl>, History <dbl>, Sport <dbl>, Crime <dbl>,
## #   Horror <dbl>, War <dbl>, Biography <dbl>, Music <dbl>, GameShow <dbl>, ...
…
